Theta: 90.0, Phi: 0.0
Theta: 90.0, Phi: 0.0
Theta: 90.0, Phi: 0.0
Theta: 90.0, Phi: 0.0
Theta: 90.0, Phi: 0.0
Theta: 90.0, Phi: 0.0
Theta: 90.0, Phi: 0.0
Theta: 90.0, Phi: 0.0
Theta: 90.0, Phi: 0.0
Theta: 90.0, Phi: 0.0
Theta: 90.0, Phi: 0.0
Theta: 90.0, Phi: 0.0
Theta: 90.0, Phi: 0.0
Theta: 90.0, Phi: 0.0
Theta: 90.0, Phi: 0.0
Theta: 90.0, Phi: 0.0
Theta: 90.0, Phi: 0.0
Theta: 90.0, Phi: 0.0
Theta: 90.0, Phi: 0.0
Theta: 90.0, Phi: 0.0
Theta: 90.0, Phi: 0.0
Theta: 90.0, Phi: 0.0
Theta: 90.0, Phi: 0.0
Theta: 90.0, Phi: 0.0
Theta: 90.0, Phi: 0.0
Theta: 90.0, Phi: 0.0
Theta: 90.0, Phi: 0.0
Theta: 90.0, Phi: 0.0
Theta: 90.0, Phi: 0.0
Theta: 90.0, Phi: 0.0
Theta: 90.0, Phi: 0.0
Theta: 90.0, Phi: 0.0
Theta: 90.0, Phi: 0.0
Theta: 90.0, Phi: 0.0
Theta: 90.0, Phi: 0.0
Theta: 90.0, Phi: 0.0
Theta: 90.0, Phi: 0.0
Theta: 90.0, Phi: 0.0
Theta: 90.0, Phi: 0.0
Theta: 90.0, Phi: 0.0
Theta: 90.0, Phi: 0.0
Theta: 90.0, Phi: 0.0
Theta: 90.0, Phi: 0.0
Theta: 90.0, Phi: 0.0
Theta: 90.0, Phi: 0.0
Theta: 90.0, Phi: 0.0
Theta: 90.0, Phi: 0.0
Theta: 90.0, Phi: 0.0
Theta: 90.0, Phi: 0.0
Theta: 90.0, Phi: 0.0
Theta: 90.0, Phi: 0.0
Theta: 90.0, Phi: 0.0
Theta: 90.0, Phi: 0.0
Theta: 90.0, Phi: 0.0
Theta: 90.0, Phi: 0.0
Theta: 90.0, Phi: 0.0
Theta: 90.0, Phi: 0.0
Theta: 90.0, Phi: 0.0
Theta: 90.0, Phi: 0.0
Theta: 90.0, Phi: 0.0
Theta: 90.0, Phi: 0.0
Theta: 90.0, Phi: 0.0
Theta: 90.0, Phi: 0.0
Theta: 90.0, Phi: 0.0
Theta: 90.0, Phi: 0.0
Theta: 90.0, Phi: 0.0
Theta: 90.0, Phi: 0.0
Theta: 90.0, Phi: 0.0
Theta: 90.0, Phi: 0.0
Theta: 90.0, Phi: 0.0
Theta: 90.0, Phi: 0.0
Theta: 90.0, Phi: 0.0
Theta: 90.0, Phi: 0.0
Theta: 90.0, Phi: 0.0
Theta: 90.0, Phi: 0.0
Theta: 90.0, Phi: 0.0
Theta: 90.0, Phi: 0.0
Theta: 90.0, Phi: 0.0
Theta: 90.0, Phi: 0.0
Theta: 90.0, Phi: 0.0
Theta: 90.0, Phi: 0.0
Theta: 90.0, Phi: 0.0
Theta: 90.0, Phi: 0.0
Theta: 90.0, Phi: 0.0
Theta: 90.0, Phi: 0.0
Theta: 90.0, Phi: 0.0
Theta: 90.0, Phi: 0.0
Theta: 90.0, Phi: 0.0
Theta: 90.0, Phi: 0.0
Theta: 90.0, Phi: 0.0
Average computation time was 85.76766914791531 ms