Theta: 90.0, Phi: 0.0
Theta: 90.0, Phi: 0.0
Theta: 90.0, Phi: 0.0
Theta: 90.0, Phi: 33.75
Theta: 90.0, Phi: 0.0
Theta: 90.0, Phi: 0.0
Theta: 90.0, Phi: 0.0
Theta: 90.0, Phi: 0.0
Theta: 90.0, Phi: 33.75
Theta: 90.0, Phi: 0.0
Theta: 90.0, Phi: 22.5
Theta: 90.0, Phi: 0.0
Theta: 90.0, Phi: 33.75
Theta: 90.0, Phi: 22.5
Theta: 90.0, Phi: 0.0
Theta: 90.0, Phi: 33.75
Theta: 90.0, Phi: 0.0
Theta: 90.0, Phi: 33.75
Theta: 90.0, Phi: 0.0
Theta: 90.0, Phi: 22.5
Theta: 90.0, Phi: 0.0
Theta: 90.0, Phi: 0.0
Theta: 90.0, Phi: 33.75
Theta: 90.0, Phi: 0.0
Theta: 90.0, Phi: 0.0
Theta: 90.0, Phi: 0.0
Theta: 90.0, Phi: 22.5
Theta: 90.0, Phi: 0.0
Theta: 90.0, Phi: 22.5
Theta: 90.0, Phi: 0.0
Theta: 90.0, Phi: 0.0
Theta: 90.0, Phi: 33.75
Theta: 90.0, Phi: 33.75
Theta: 90.0, Phi: 33.75
Average computation time was 226.59619415507598 ms