Theta: 90.0, Phi: 0.0
Theta: 90.0, Phi: 0.0
Theta: 90.0, Phi: 0.0
Theta: 90.0, Phi: 0.0
Theta: 90.0, Phi: 0.0
Theta: 90.0, Phi: 0.0
Theta: 90.0, Phi: 0.0
Theta: 90.0, Phi: 0.0
Theta: 90.0, Phi: 0.0
Theta: 90.0, Phi: 0.0
Theta: 90.0, Phi: 0.0
Theta: 90.0, Phi: 0.0
Theta: 90.0, Phi: 0.0
Theta: 90.0, Phi: 0.0
Theta: 90.0, Phi: 0.0
Theta: 90.0, Phi: 0.0
Theta: 90.0, Phi: 0.0
Theta: 90.0, Phi: 0.0
Theta: 90.0, Phi: 0.0
Theta: 90.0, Phi: 0.0
Theta: 90.0, Phi: 0.0
Theta: 90.0, Phi: 0.0
Theta: 90.0, Phi: 0.0
Theta: 90.0, Phi: 0.0
Theta: 90.0, Phi: 0.0
Theta: 90.0, Phi: 0.0
Theta: 90.0, Phi: 0.0
Theta: 90.0, Phi: 0.0
Theta: 90.0, Phi: 0.0
Theta: 90.0, Phi: 0.0
Theta: 90.0, Phi: 0.0
Theta: 90.0, Phi: 0.0
Theta: 90.0, Phi: 0.0
Theta: 90.0, Phi: 0.0
Theta: 90.0, Phi: 0.0
Theta: 90.0, Phi: 0.0
Theta: 90.0, Phi: 0.0
Theta: 90.0, Phi: 0.0
Theta: 90.0, Phi: 0.0
Theta: 90.0, Phi: 0.0
Theta: 90.0, Phi: 0.0
Theta: 90.0, Phi: 0.0
Theta: 90.0, Phi: 0.0
Theta: 90.0, Phi: 0.0
Theta: 90.0, Phi: 0.0
Theta: 90.0, Phi: 0.0
Theta: 90.0, Phi: 0.0
Average computation time was 133.7095524402375 ms