Theta: 90.0, Phi: 0.0
Theta: 90.0, Phi: 0.0
Theta: 90.0, Phi: 0.0
Theta: 90.0, Phi: 0.0
Theta: 90.0, Phi: 0.0
Theta: 90.0, Phi: 0.0
Theta: 90.0, Phi: 0.0
Theta: 90.0, Phi: 0.0
Theta: 90.0, Phi: 0.0
Theta: 90.0, Phi: 0.0
Theta: 90.0, Phi: 0.0
Theta: 90.0, Phi: 0.0
Theta: 90.0, Phi: 0.0
Theta: 90.0, Phi: 0.0
Theta: 90.0, Phi: 0.0
Theta: 90.0, Phi: 0.0
Theta: 90.0, Phi: 0.0
Theta: 90.0, Phi: 0.0
Theta: 90.0, Phi: 0.0
Theta: 90.0, Phi: 0.0
Theta: 90.0, Phi: 0.0
Theta: 90.0, Phi: 0.0
Theta: 90.0, Phi: 0.0
Theta: 90.0, Phi: 0.0
Theta: 90.0, Phi: 0.0
Theta: 90.0, Phi: 0.0
Theta: 90.0, Phi: 0.0
Theta: 90.0, Phi: 0.0
Theta: 90.0, Phi: 0.0
Theta: 90.0, Phi: 0.0
Theta: 90.0, Phi: 0.0
Theta: 90.0, Phi: 0.0
Theta: 90.0, Phi: 0.0
Theta: 90.0, Phi: 0.0
Theta: 90.0, Phi: 0.0
Theta: 90.0, Phi: 0.0
Theta: 90.0, Phi: 0.0
Theta: 90.0, Phi: 0.0
Theta: 90.0, Phi: 0.0
Theta: 90.0, Phi: 0.0
Theta: 90.0, Phi: 0.0
Theta: 90.0, Phi: 0.0
Theta: 90.0, Phi: 0.0
Theta: 90.0, Phi: 0.0
Theta: 90.0, Phi: 0.0
Theta: 90.0, Phi: 0.0
Theta: 90.0, Phi: 0.0
Average computation time was 132.51023089632073 ms