Theta: 90.0, Phi: 90.0
Theta: 90.0, Phi: 78.75
Theta: 90.0, Phi: 67.5
Theta: 90.0, Phi: 67.5
Theta: 90.0, Phi: 90.0
Theta: 90.0, Phi: 90.0
Theta: 90.0, Phi: 67.5
Theta: 90.0, Phi: 90.0
Theta: 90.0, Phi: 90.0
Theta: 90.0, Phi: 45.0
Theta: 90.0, Phi: 78.75
Theta: 90.0, Phi: 90.0
Theta: 90.0, Phi: 78.75
Theta: 90.0, Phi: 90.0
Theta: 90.0, Phi: 90.0
Theta: 90.0, Phi: 45.0
Theta: 90.0, Phi: 90.0
Theta: 90.0, Phi: 90.0
Theta: 90.0, Phi: 90.0
Theta: 90.0, Phi: 90.0
Theta: 90.0, Phi: 90.0
Theta: 90.0, Phi: 90.0
Theta: 90.0, Phi: 56.25
Theta: 90.0, Phi: 90.0
Theta: 90.0, Phi: 67.5
Theta: 90.0, Phi: 90.0
Theta: 90.0, Phi: 67.5
Theta: 90.0, Phi: 90.0
Theta: 90.0, Phi: 67.5
Theta: 90.0, Phi: 90.0
Theta: 90.0, Phi: 90.0
Theta: 90.0, Phi: 90.0
Theta: 90.0, Phi: 90.0
Theta: 90.0, Phi: 90.0
Theta: 90.0, Phi: 90.0
Theta: 90.0, Phi: 90.0
Theta: 90.0, Phi: 90.0
Theta: 90.0, Phi: 90.0
Theta: 90.0, Phi: 90.0
Theta: 90.0, Phi: 67.5
Theta: 90.0, Phi: 90.0
Theta: 90.0, Phi: 90.0
Theta: 90.0, Phi: 90.0
Theta: 90.0, Phi: 90.0
Theta: 90.0, Phi: 90.0
Theta: 90.0, Phi: 90.0
Theta: 90.0, Phi: 67.5
Average computation time was 133.56172277572307 ms