Theta: 90.0, Phi: 22.5
Theta: 90.0, Phi: 22.5
Theta: 90.0, Phi: 22.5
Theta: 90.0, Phi: 22.5
Theta: 90.0, Phi: 22.5
Theta: 90.0, Phi: 22.5
Theta: 90.0, Phi: 45.0
Theta: 90.0, Phi: 22.5
Theta: 90.0, Phi: 22.5
Theta: 90.0, Phi: 22.5
Theta: 90.0, Phi: 22.5
Theta: 90.0, Phi: 22.5
Theta: 90.0, Phi: 22.5
Theta: 90.0, Phi: 22.5
Theta: 90.0, Phi: 22.5
Theta: 90.0, Phi: 22.5
Theta: 90.0, Phi: 22.5
Theta: 90.0, Phi: 22.5
Theta: 90.0, Phi: 22.5
Theta: 90.0, Phi: 22.5
Theta: 90.0, Phi: 22.5
Theta: 90.0, Phi: 22.5
Theta: 90.0, Phi: 22.5
Theta: 90.0, Phi: 22.5
Theta: 90.0, Phi: 22.5
Theta: 90.0, Phi: 22.5
Theta: 90.0, Phi: 22.5
Theta: 90.0, Phi: 22.5
Theta: 90.0, Phi: 22.5
Theta: 90.0, Phi: 22.5
Theta: 90.0, Phi: 22.5
Theta: 90.0, Phi: 22.5
Theta: 90.0, Phi: 22.5
Theta: 90.0, Phi: 22.5
Theta: 90.0, Phi: 22.5
Theta: 90.0, Phi: 22.5
Theta: 90.0, Phi: 22.5
Theta: 90.0, Phi: 22.5
Theta: 90.0, Phi: 22.5
Theta: 90.0, Phi: 22.5
Theta: 90.0, Phi: 22.5
Theta: 90.0, Phi: 22.5
Theta: 90.0, Phi: 22.5
Theta: 90.0, Phi: 45.0
Theta: 90.0, Phi: 22.5
Theta: 90.0, Phi: 22.5
Theta: 90.0, Phi: 22.5
Theta: 90.0, Phi: 22.5
Average computation time was 132.01229770978293 ms